…
Record time for running all code

ptm<-proc.time()

Set the seed for the random number generator, so it will be possible
to reproduce the random points

set.seed(10299)
options(max.print=1000000)

SaoBentotrk -> trk  
trk # %>% print(n = 9000)

## # A tibble: 8,698 x 21
##        x_     y_ t_                         id tod_  dt    sex     age weight status     sl   nsd_ dir_abs dir_rel project_region long_x lat_y  week month  year
##  *  <dbl>  <dbl> <dttm>                  <int> <chr> <tim> <fct> <dbl>  <dbl> <fct>   <dbl>  <dbl>   <dbl>   <dbl> <fct>           <dbl> <dbl> <dbl> <ord> <dbl>
##  1 4.94e5 7.84e6 2008-07-05 03:51:00.000   105 night "   ~ Fema~     3     70 Resid~ 9.49e0 0.        71.6   NA    Sao Bento       -57.1 -19.5    27 Jul    2008
##  2 4.94e5 7.84e6 2008-07-05 07:00:00.000   105 day   1080~ Fema~     3     70 Resid~ 1.20e2 9.00e1    38.2  -33.4  Sao Bento       -57.1 -19.5    27 Jul    2008
##  3 4.94e5 7.84e6 2008-07-05 16:00:00.000   105 day   3240~ Fema~     3     70 Resid~ 2.35e2 1.63e4    71.4   33.2  Sao Bento       -57.1 -19.5    27 Jul    2008
##  4 4.94e5 7.84e6 2008-07-05 19:00:00.000   105 night 1080~ Fema~     3     70 Resid~ 3.74e1 1.23e5   164.    93.1  Sao Bento       -57.1 -19.5    27 Jul    2008
##  5 4.94e5 7.84e6 2008-07-06 01:00:00.000   105 night 2160~ Fema~     3     70 Resid~ 2.97e3 1.18e5   170.     5.78 Sao Bento       -57.1 -19.5    27 Jul    2008
##  6 4.94e5 7.84e6 2008-07-06 16:00:00.000   105 day   5400~ Fema~     3     70 Resid~ 6.13e2 8.44e6   265.    94.7  Sao Bento       -57.1 -19.5    27 Jul    2008
##  7 4.94e5 7.84e6 2008-07-06 19:00:00.000   105 night 1080~ Fema~     3     70 Resid~ 2.25e3 8.11e6   348.    83.1  Sao Bento       -57.1 -19.5    27 Jul    2008
##  8 4.95e5 7.84e6 2008-07-06 22:00:00.000   105 night 1080~ Fema~     3     70 Resid~ 6.26e2 4.74e5   339.    -9.13 Sao Bento       -57.1 -19.5    27 Jul    2008
##  9 4.95e5 7.84e6 2008-07-07 04:00:00.000   105 night 2160~ Fema~     3     70 Resid~ 9.01e2 2.37e5   200.  -139.   Sao Bento       -57.0 -19.5    27 Jul    2008
## 10 4.95e5 7.84e6 2008-07-07 07:00:00.000   105 day   1080~ Fema~     3     70 Resid~ 9.14e2 1.44e6   190.    -9.38 Sao Bento       -57.0 -19.5    27 Jul    2008
## # ... with 8,688 more rows, and 1 more variable: hour <int>
…
## Lets add on the time difference to each obs.  Alerady DONE!!! 
#trk<-trk %>% group_by(id) %>% mutate(dt_ = t_ - lag(t_, default = NA))
#trk

Jaguar 105
Let's illustrate track regularization with ID = 105. Let's
keeping is as 3 hours with tolerance of 1 hours

temp105<-trk %>% filter(id=="105") %>% track_resample(rate=hours(3), tolerance=hours(1))
temp105 %>% select(id, x_, y_, t_, burst_)

## # A tibble: 2,111 x 5
##       id      x_       y_ t_                      burst_
##  * <int>   <dbl>    <dbl> <dttm>                   <dbl>
##  1   105 494319. 7844358. 2008-07-05 03:51:00.000      1
##  2   105 494310. 7844361. 2008-07-05 07:00:00.000      1
##  3   105 494236. 7844455. 2008-07-05 16:00:00.000      2
##  4   105 494013. 7844530. 2008-07-05 19:00:00.000      2
##  5   105 494003. 7844494. 2008-07-06 01:00:00.000      3
##  6   105 493501. 7841571. 2008-07-06 16:00:00.000      4
##  7   105 494112. 7841517. 2008-07-06 19:00:00.000      4
##  8   105 494578. 7843720. 2008-07-06 22:00:00.000      4
##  9   105 494803. 7844304. 2008-07-07 04:00:00.000      5
## 10   105 495108. 7843456. 2008-07-07 07:00:00.000      5
## # ... with 2,101 more rows
…
ssf105 <- ssf105 %>% extract_covariates(dist2drainage); ssf105 <- rename(ssf105, dist2drainage = UTM_b115_dist2drainage_exp)
ssf105 <- ssf105 %>% extract_covariates(dist2water); ssf105 <- rename(ssf105, dist2water = UTM_b115_dist2waterbodies_exp) 
ssf105 <- ssf105 %>% extract_covariates(dist2forest);ssf105 <- rename(ssf105, dist2forest =UTM_b115_dist2forestedges_Neotropic_Hansen_forest1_0_95percenttreecover_2000_30_tif_exp_edge_dist)  
ssf105 <- ssf105 %>% extract_covariates(dist2roads); ssf105 <- rename(ssf105, dist2roads = UTM_b115_dist2roads_exp) 
ssf105 <- ssf105 %>% extract_covariates(human_footprint); ssf105 <- rename(ssf105, human_footprint = UTM_b115_human_footprint_2009_1km_tif_exp) 
ssf105 <- ssf105 %>% extract_covariates(Livestock); ssf105 <- rename(ssf105, Livestock = UTM_b115_Livestock_Cattle_CC2006_AD_1km_neotropic_albers_tif_exp) 
ssf105 <- ssf105 %>% extract_covariates(popdensity); ssf105 <- rename(ssf105, popdensity =UTM_b115_Population_density_gpw_v4_rev10_2015_1km_neotropic_albers_tif_exp) 
ssf105 <- ssf105 %>% extract_covariates(Landcover); ssf105 <- rename(ssf105, Landcover = UTM_b115_Landcover_ESACCI_2015_300m_neotropic_albers_tif_exp) 
ssf105 <- ssf105 %>% extract_covariates(treecover); ssf105 <- rename(ssf105, treecover = UTM_b115_Neotropic_Hansen_percenttreecover_2000_30m_tif_exp) 
ssf105 <- ssf105 %>% extract_covariates(topo); ssf105 <- rename(ssf105, topo = UTM_b115_Neotropic_Earthenv_dem90m_tif_exp)  
ssf105 <- ssf105 %>% extract_covariates(water); ssf105 <- rename(ssf105, water = UTM_b115_water_frequency_2010_30m_tif_exp)  

print(ssf105, width=Inf)

## # A tibble: 15,152 x 23
##    burst_ step_id_ case_     x1_      y1_     x2_      y2_ t1_                     t2_                     dt_           sl_    ta_ dist2drainage dist2water
##  *  <dbl>    <int> <lgl>   <dbl>    <dbl>   <dbl>    <dbl> <dttm>                  <dttm>                  <time>      <dbl>  <dbl>         <dbl>      <dbl>
##  1      4        1 TRUE  494112. 7841517. 494578. 7843720. 2008-07-06 19:00:00.000 2008-07-06 22:00:00.000 3 hours 2252.       83.1          33.1      17.9 
##  2      4        1 FALSE 494112. 7841517. 494112. 7841518. 2008-07-06 19:00:00.000 2008-07-06 22:00:00.000 3 hours    0.691   -30.4        1806.       93.3 
##  3      4        1 FALSE 494112. 7841517. 490581. 7840189. 2008-07-06 19:00:00.000 2008-07-06 22:00:00.000 3 hours 3772.      129.         3980.       81.5 
##  4      4        1 FALSE 494112. 7841517. 494396. 7841500. 2008-07-06 19:00:00.000 2008-07-06 22:00:00.000 3 hours  285.      -50.3        1604.       91.9 
##  5      4        1 FALSE 494112. 7841517. 494097. 7841520. 2008-07-06 19:00:00.000 2008-07-06 22:00:00.000 3 hours   15.3     103.         1811.      114.  
##  6      4        1 FALSE 494112. 7841517. 493746. 7841567. 2008-07-06 19:00:00.000 2008-07-06 22:00:00.000 3 hours  369.     -123.         2040.       28.8 
##  7      4        1 FALSE 494112. 7841517. 494000. 7841453. 2008-07-06 19:00:00.000 2008-07-06 22:00:00.000 3 hours  129.      -52.9        1937.        8.55
##  8      4        1 FALSE 494112. 7841517. 497208. 7839964. 2008-07-06 19:00:00.000 2008-07-06 22:00:00.000 3 hours 3464.     -176.          633.      126.  
##  9      4        1 FALSE 494112. 7841517. 494104. 7841512. 2008-07-06 19:00:00.000 2008-07-06 22:00:00.000 3 hours    9.71    -34.0        1830.       87.3 
## 10      4        1 FALSE 494112. 7841517. 494112. 7841517. 2008-07-06 19:00:00.000 2008-07-06 22:00:00.000 3 hours    0.0215 -123.         1806.       93.3 
##    dist2forest dist2roads human_footprint Livestock popdensity Landcover treecover  topo water
##  *       <dbl>      <dbl>           <dbl>     <dbl>      <dbl>     <dbl>     <dbl> <dbl> <dbl>
##  1        158.      3432.            5.81      31.7     0.131       180     0.0644  90    1.49
##  2        482.      3919.            5.27      31.9     0.131       180     6.81    90    1   
##  3        732.      2906.            8.03      33.2     0.0735      180    20.4     90    1   
##  4        368.      3650.            5.27      31.9     0.131       180    15.4     90    1   
##  5        481.      3951.            5.27      31.9     0.131       180    18.9     90    1   
##  6        737.      4282.            7.09      41.6     0.131       180     4.52    90    1.24
##  7        608.      4034.            5.27      31.9     0.131       123.    0       90    1.71
##  8       1540.       899.           11.0       32.3     0.131       180     0       90.0  1   
##  9        503.      3949.            5.27      31.9     0.131       180     5.92    90    1   
## 10        482.      3919.            5.27      31.9     0.131       180     6.81    90    1   
## # ... with 15,142 more rows

Jaguar 106
Let's illustrate track regularization with ID = 106. Let's
keeping is as 3 hours with tolerance of 1 hours

temp106<-trk %>% filter(id=="106") %>% track_resample(rate=hours(3), tolerance=hours(1))
temp106 %>% select(id, x_, y_, t_, burst_)

## # A tibble: 226 x 5
##       id      x_       y_ t_                      burst_
##  * <int>   <dbl>    <dbl> <dttm>                   <dbl>
##  1   106 511629. 7847431. 2009-09-24 05:45:00.000      1
##  2   106 511693. 7848539. 2009-09-24 22:00:00.000      2
##  3   106 511677. 7848534. 2009-09-25 01:00:00.000      2
##  4   106 512207. 7845058. 2009-09-25 22:00:00.000      3
##  5   106 513193. 7843766. 2009-09-26 01:00:00.000      3
##  6   106 514800. 7844913. 2009-09-26 16:00:00.000      4
##  7   106 513583. 7845316. 2009-09-26 19:00:00.000      4
##  8   106 513586. 7845312. 2009-09-26 22:00:00.000      4
##  9   106 512856. 7845642. 2009-09-27 01:00:00.000      4
## 10   106 512232. 7845471. 2009-09-27 07:00:00.000      5
## # ... with 216 more rows
…
ssf106 <- ssf106 %>% extract_covariates(dist2drainage); ssf106 <- rename(ssf106, dist2drainage = UTM_b115_dist2drainage_exp)
ssf106 <- ssf106 %>% extract_covariates(dist2water); ssf106 <- rename(ssf106, dist2water = UTM_b115_dist2waterbodies_exp) 
ssf106 <- ssf106 %>% extract_covariates(dist2forest);ssf106 <- rename(ssf106, dist2forest =UTM_b115_dist2forestedges_Neotropic_Hansen_forest1_0_95percenttreecover_2000_30_tif_exp_edge_dist)  
ssf106 <- ssf106 %>% extract_covariates(dist2roads); ssf106 <- rename(ssf106, dist2roads = UTM_b115_dist2roads_exp) 
ssf106 <- ssf106 %>% extract_covariates(human_footprint); ssf106 <- rename(ssf106, human_footprint = UTM_b115_human_footprint_2009_1km_tif_exp) 
ssf106 <- ssf106 %>% extract_covariates(Livestock); ssf106 <- rename(ssf106, Livestock = UTM_b115_Livestock_Cattle_CC2006_AD_1km_neotropic_albers_tif_exp) 
ssf106 <- ssf106 %>% extract_covariates(popdensity); ssf106 <- rename(ssf106, popdensity =UTM_b115_Population_density_gpw_v4_rev10_2015_1km_neotropic_albers_tif_exp) 
ssf106 <- ssf106 %>% extract_covariates(Landcover); ssf106 <- rename(ssf106, Landcover = UTM_b115_Landcover_ESACCI_2015_300m_neotropic_albers_tif_exp) 
ssf106 <- ssf106 %>% extract_covariates(treecover); ssf106 <- rename(ssf106, treecover = UTM_b115_Neotropic_Hansen_percenttreecover_2000_30m_tif_exp) 
ssf106 <- ssf106 %>% extract_covariates(topo); ssf106 <- rename(ssf106, topo = UTM_b115_Neotropic_Earthenv_dem90m_tif_exp)  
ssf106 <- ssf106 %>% extract_covariates(water); ssf106 <- rename(ssf106, water = UTM_b115_water_frequency_2010_30m_tif_exp)  

print(ssf106, width=Inf)

## # A tibble: 1,376 x 23
##    burst_ step_id_ case_     x1_      y1_     x2_      y2_ t1_                     t2_                     dt_         sl_     ta_ dist2drainage dist2water
##  *  <dbl>    <int> <lgl>   <dbl>    <dbl>   <dbl>    <dbl> <dttm>                  <dttm>                  <time>    <dbl>   <dbl>         <dbl>      <dbl>
##  1      4        1 TRUE  513583. 7845316. 513586. 7845312. 2009-09-26 19:00:00.000 2009-09-26 22:00:00.000 3 hours    5.00  145.           1263.     156.  
##  2      4        1 FALSE 513583. 7845316. 513479. 7844217. 2009-09-26 19:00:00.000 2009-09-26 22:00:00.000 3 hours 1104.   -108.            108.     284.  
##  3      4        1 FALSE 513583. 7845316. 513582. 7845336. 2009-09-26 19:00:00.000 2009-09-26 22:00:00.000 3 hours   20.1    64.4          1263.     156.  
##  4      4        1 FALSE 513583. 7845316. 513393. 7843282. 2009-09-26 19:00:00.000 2009-09-26 22:00:00.000 3 hours 2043.     92.6           564.      99.4 
##  5      4        1 FALSE 513583. 7845316. 510941. 7843596. 2009-09-26 19:00:00.000 2009-09-26 22:00:00.000 3 hours 3152.     98.0           561.       4.40
##  6      4        1 FALSE 513583. 7845316. 513587. 7845316. 2009-09-26 19:00:00.000 2009-09-26 22:00:00.000 3 hours    3.62  107.           1263.     156.  
##  7      4        1 FALSE 513583. 7845316. 515475. 7847043. 2009-09-26 19:00:00.000 2009-09-26 22:00:00.000 3 hours 2562.     -5.54         1803.     206.  
##  8      4        1 FALSE 513583. 7845316. 513211. 7844910. 2009-09-26 19:00:00.000 2009-09-26 22:00:00.000 3 hours  551.     -2.31          803.      82.6 
##  9      4        1 FALSE 513583. 7845316. 513745. 7845465. 2009-09-26 19:00:00.000 2009-09-26 22:00:00.000 3 hours  220.     88.7          1439.      18.7 
## 10      4        1 FALSE 513583. 7845316. 513527. 7845624. 2009-09-26 19:00:00.000 2009-09-26 22:00:00.000 3 hours  313.   -149.           1583.       7.38
##    dist2forest dist2roads human_footprint Livestock popdensity Landcover treecover  topo water
##  *       <dbl>      <dbl>           <dbl>     <dbl>      <dbl>     <dbl>     <dbl> <dbl> <dbl>
##  1        68.4      9186.            2.25      34.0      0.131       180      23.7  94    1   
##  2       156.       8715.            2.26      33.8      0.131       180      26.9  92.6  1   
##  3        68.4      9186.            2.25      34.0      0.131       180      23.7  94    1   
##  4       302.       8355.            2.25      32.9      0.131       180      30.2  93    1   
##  5       155.       6226.            2.28      23.3      0.131       180      53.0  92    1.85
##  6        68.4      9186.            2.25      34.0      0.131       180      23.7  94    1   
##  7        69.1     11511.            1.25      35.9      0.131       180      41.3  93    1   
##  8        36.0      8709.            2.25      32.8      0.131       180      82.2  94.1  1   
##  9        40.7      9376.            1.44      33.4      0.131       180      72.6  93.7  1.43
## 10       243.       9236.            2.25      34.0      0.131       180      18.4  93    1.75
## # ... with 1,366 more rows

Jaguar 107
Let's illustrate track regularization with ID = 107. Let's
keeping is as 3 hours with tolerance of 1 hours

temp107<-trk %>% filter(id=="107") %>% track_resample(rate=hours(3), tolerance=hours(1))
temp107 %>% select(id, x_, y_, t_, burst_)

## # A tibble: 287 x 5
##       id      x_       y_ t_                      burst_
##  * <int>   <dbl>    <dbl> <dttm>                   <dbl>
##  1   107 517858. 7846433. 2008-07-30 07:00:00.000      1
##  2   107 517807. 7846416. 2008-07-30 10:00:00.000      1
##  3   107 517793. 7846421. 2008-07-30 22:00:00.000      2
##  4   107 517837. 7845982. 2008-07-31 01:00:00.000      2
##  5   107 518613. 7844690. 2008-07-31 07:00:00.000      3
##  6   107 520107. 7846932. 2008-07-31 16:00:00.000      4
##  7   107 520108. 7846936. 2008-07-31 19:00:00.000      4
##  8   107 521334. 7846296. 2008-08-01 04:00:00.000      5
##  9   107 521330. 7846295. 2008-08-01 13:00:00.000      6
## 10   107 521961. 7846588. 2008-08-01 16:00:00.000      6
## # ... with 277 more rows
…
ssf107 <- ssf107 %>% extract_covariates(dist2drainage); ssf107 <- rename(ssf107, dist2drainage = UTM_b115_dist2drainage_exp)
ssf107 <- ssf107 %>% extract_covariates(dist2water); ssf107 <- rename(ssf107, dist2water = UTM_b115_dist2waterbodies_exp) 
ssf107 <- ssf107 %>% extract_covariates(dist2forest);ssf107 <- rename(ssf107, dist2forest =UTM_b115_dist2forestedges_Neotropic_Hansen_forest1_0_95percenttreecover_2000_30_tif_exp_edge_dist)  
ssf107 <- ssf107 %>% extract_covariates(dist2roads); ssf107 <- rename(ssf107, dist2roads = UTM_b115_dist2roads_exp) 
ssf107 <- ssf107 %>% extract_covariates(human_footprint); ssf107 <- rename(ssf107, human_footprint = UTM_b115_human_footprint_2009_1km_tif_exp) 
ssf107 <- ssf107 %>% extract_covariates(Livestock); ssf107 <- rename(ssf107, Livestock = UTM_b115_Livestock_Cattle_CC2006_AD_1km_neotropic_albers_tif_exp) 
ssf107 <- ssf107 %>% extract_covariates(popdensity); ssf107 <- rename(ssf107, popdensity =UTM_b115_Population_density_gpw_v4_rev10_2015_1km_neotropic_albers_tif_exp) 
ssf107 <- ssf107 %>% extract_covariates(Landcover); ssf107 <- rename(ssf107, Landcover = UTM_b115_Landcover_ESACCI_2015_300m_neotropic_albers_tif_exp) 
ssf107 <- ssf107 %>% extract_covariates(treecover); ssf107 <- rename(ssf107, treecover = UTM_b115_Neotropic_Hansen_percenttreecover_2000_30m_tif_exp) 
ssf107 <- ssf107 %>% extract_covariates(topo); ssf107 <- rename(ssf107, topo = UTM_b115_Neotropic_Earthenv_dem90m_tif_exp)  
ssf107 <- ssf107 %>% extract_covariates(water); ssf107 <- rename(ssf107, water = UTM_b115_water_frequency_2010_30m_tif_exp)  

print(ssf107, width=Inf)

## # A tibble: 1,840 x 23
##    burst_ step_id_ case_     x1_      y1_     x2_      y2_ t1_                     t2_                     dt_         sl_    ta_ dist2drainage dist2water
##  *  <dbl>    <int> <lgl>   <dbl>    <dbl>   <dbl>    <dbl> <dttm>                  <dttm>                  <time>    <dbl>  <dbl>         <dbl>      <dbl>
##  1     10        1 TRUE  521972. 7848754. 522098. 7848655. 2008-08-03 07:00:00.000 2008-08-03 10:00:00.000 3 hours  160.    -44.4         3224.      35.5 
##  2     10        1 FALSE 521972. 7848754. 521971. 7848752. 2008-08-03 07:00:00.000 2008-08-03 10:00:00.000 3 hours    2.49   79.7         3257.      21.2 
##  3     10        1 FALSE 521972. 7848754. 523408. 7848576. 2008-08-03 07:00:00.000 2008-08-03 10:00:00.000 3 hours 1446.     62.7         2123.      18.1 
##  4     10        1 FALSE 521972. 7848754. 521979. 7848741. 2008-08-03 07:00:00.000 2008-08-03 10:00:00.000 3 hours   14.9    86.9         3257.      21.2 
##  5     10        1 FALSE 521972. 7848754. 523337. 7850192. 2008-08-03 07:00:00.000 2008-08-03 10:00:00.000 3 hours 1983.     76.2         1284.       0   
##  6     10        1 FALSE 521972. 7848754. 521251. 7849022. 2008-08-03 07:00:00.000 2008-08-03 10:00:00.000 3 hours  769.    -97.7         3587.      20.6 
##  7     10        1 FALSE 521972. 7848754. 522016. 7848950. 2008-08-03 07:00:00.000 2008-08-03 10:00:00.000 3 hours  201.    177.          3100.       9.72
##  8     10        1 FALSE 521972. 7848754. 522116. 7846586. 2008-08-03 07:00:00.000 2008-08-03 10:00:00.000 3 hours 2173.    -20.4         2936.      91.3 
##  9     10        1 FALSE 521972. 7848754. 522338. 7848341. 2008-08-03 07:00:00.000 2008-08-03 10:00:00.000 3 hours  552.     30.6         2905.      39.6 
## 10     10        1 FALSE 521972. 7848754. 521957. 7848795. 2008-08-03 07:00:00.000 2008-08-03 10:00:00.000 3 hours   43.6   -23.2         3219.      20.7 
##    dist2forest dist2roads human_footprint Livestock popdensity Landcover treecover  topo water
##  *       <dbl>      <dbl>           <dbl>     <dbl>      <dbl>     <dbl>     <dbl> <dbl> <dbl>
##  1       -4.48     11926.            1.25      34.3      0.131       180      94.7  96.7  1.16
##  2      -11.3      11904.            1.25      33.5      0.131       180      93.5  96.3  1.35
##  3       75.6      11465.            1.25      35.1      0.131       180      17.6  96    1.46
##  4      -11.3      11904.            1.25      33.5      0.131       180      93.5  96.3  1.35
##  5      186.        9951.            1.25      32.2      0.131       180      36.5  95    2   
##  6      124.       12001.            1.25      31.8      0.131       180      38.2  95.0  1.31
##  7      144.       11707.            1.25      34.3      0.131       180      25.6  95    1.68
##  8       95.9      13876.            1.25      32.2      0.131       180      66.8  96    1   
##  9      104.       12107.            1.25      34.3      0.131       180      63.7  95    1.08
## 10       19.2      11852.            1.25      33.6      0.131       180      83.4  95.6  1.31
## # ... with 1,830 more rows
…
